[
  "I received your message.",
  "Please confirm your attendance.",
  "We apologize for the inconvenience.",
  "Please let us know if you need assistance.",
  "Your feedback is important to us.",
  "We look forward to hearing from you.",
  "The issue has been resolved.",
  "Please review the attached document.",
  "Please let us know if you have any questions or concerns.",
  "You can find the details below.",
  "Attached is the document you requested.",
  "Thank you for your prompt response.",
  "I look forward to hearing from you soon.",
  "Thank you for your understanding.",
  "I appreciate your cooperation on this matter",
  "Please confirm your attendance by replying to this email.",
  "The deadline for submissions is next Friday.",
  "The report has been finalized and is ready for distribution.",
  "The event has been postponed until further notice.",
  "The new policy will take effect starting next month.",
  "The company is expanding its operations to new markets.",
  "The team has successfully completed the project ahead of schedule.",
  "The new policy aims to improve employee satisfaction.",
  "The company is investing in new technologies to improve efficiency.",
  "The team is excited to announce the launch of a new project.",
  "The team will be attending a conference to learn about the latest industry trends.",
  "Let's discuss this matter further in our next meeting.",
  "Please let me know your availability for a call next week.",
  "I will be out of the office until Friday.",
  "Please send me the latest updates on this project.",
  "Let me know if you need anything else.",
  "I will get back to you with more information soon.",
  "I apologize for the delay in my response.",
  "I will send you the details by the end of the day.",
  "Please let me know if you need any additional information.",
  "I will keep you updated on the progress of the project.",
  "I will be on leave starting tomorrow.",
  "I will coordinate with the team to address this issue.",
  "I will review the document and get back to you with any changes.",
  "Thank you for your understanding and cooperation throughout the project.",
  "The meeting has been rescheduled to next week.",
  "We need to finalize the plan for the project.",
  "Please make sure to submit your report on time.",
  "We need to address this issue immediately.",
  "Please ensure that all requirements are met.",
  "We need to clarify the scope of the project.",
  "I will inform you of any changes to the schedule.",
  "The deadline for submitting proposals has been extended.",
  "We need to allocate more resources to this project.",
  "The project timeline needs to be adjusted.",
  "We need to address these concerns with the client.",
  "We need to finalize the details of the contract.",
  "We need to ensure that all team members are trained on the new software.",
  "The project manager will be responsible for overseeing the implementation.",
  "We need to ensure that all safety protocols are followed."
]